"1";"http://www.mundoanuncio.com/publicar/categoria/chica_busca_chico_13.html";"CONTACTOS - CHICA BUSCA CHICO"
"2";"http://www.mundoanuncio.com/publicar/categoria/chica_busca_chica_14.html";"CONTACTOS - CHICA BUSCA CHICA"
"3";"http://www.mundoanuncio.com/publicar/categoria/chico_busca_chica_15.html";"CONTACTOS - CHICO BUSCA CHICA"
"4";"http://www.mundoanuncio.com/publicar/categoria/chico_busca_chico_16.html";"CONTACTOS - CHICO BUSCA CHICO"
"5";"http://www.mundoanuncio.com/publicar/categoria/relaciones_ocasionales_17.html";"CONTACTOS - RELACIONES OCASIONALES"
"6";"http://www.mundoanuncio.com/publicar/categoria/eroticos_profesionales_18.html";"CONTACTOS - EROTICOS PROFESIONALES"
"7";"http://www.mundoanuncio.com/publicar/categoria/piso_en_alquiler_2.html";"VIVIENDA/LOCALES - PISO EN ALQUILER"
"8";"http://www.mundoanuncio.com/publicar/categoria/habitacion_en_alquiler_3.html";"VIVIENDA/LOCALES - HABITACION EN ALQUILER"
"9";"http://www.mundoanuncio.com/publicar/categoria/apartamentos_temp_habs_4.html";"VIVIENDA/LOCALES - APARTAMENTOS"
"10";"http://www.mundoanuncio.com/publicar/categoria/vendo_piso_casa_5.html";"VIVIENDA/LOCALES - VENDO PISO/CASA"
"11";"http://www.mundoanuncio.com/publicar/categoria/busco_piso_para_alquilar_6.html";"VIVIENDA/LOCALES - BUSCO PISO ALQUILER"
"12";"http://www.mundoanuncio.com/publicar/categoria/busco_habitacion_7.html";"VIVIENDA/LOCALES - BUSCO HABITACION"
"13";"http://www.mundoanuncio.com/publicar/categoria/oficinas_locales_traspasos_8.html";"VIVIENDA/LOCALES - OFICINAS/LOCALES/TRASPASOS"
"14";"http://www.mundoanuncio.com/publicar/categoria/plazas_de_parking_9.html";"VIVIENDA/LOCALES - PLAZAS DE PARKING"
"15";"http://www.mundoanuncio.com/publicar/categoria/intercambio_de_pisos_10.html";"VIVIENDA/LOCALES - INTERCAMBIO DE PISOS"
"16";"http://www.mundoanuncio.com/publicar/categoria/casas_rurales_costa_11.html";"VIVIENDA/LOCALES - CASAS RURALES/COSTA"
"17";"http://www.mundoanuncio.com/publicar/categoria/coches_motos_bicis_20.html";"COMPRAR/VENDER - MOTOS/COCHES/BICIS"
"18";"http://www.mundoanuncio.com/publicar/categoria/ordenador_informatica_21.html";"COMPRAR/VENDER - INFORMATICA"
"19";"http://www.mundoanuncio.com/publicar/categoria/electronica_moviles_22.html";"COMPRAR/VENDER - ELECTRONICA/MOVILES"
"20";"http://www.mundoanuncio.com/publicar/categoria/muebles_electrodomesticos_23.html";"COMPRAR/VENDER - MUEBLES/ELECTRODOMESTICOS"
"21";"http://www.mundoanuncio.com/publicar/categoria/deportes_24.html";"COMPRAR/VENDER - DEPORTES"
"22";"http://www.mundoanuncio.com/publicar/categoria/ropa_accesorios_25.html";"COMPRAR/VENDER - ROPA/ACCESORIOS"
"23";"http://www.mundoanuncio.com/publicar/categoria/instrumentos_musicales_26.html";"COMPRAR/VENDER - INSTRUMENTOS/MUSICALES"
"24";"http://www.mundoanuncio.com/publicar/categoria/coleccionables_27.html";"COMPRAR/VENDER - COLECCIONABLES"
"25";"http://www.mundoanuncio.com/publicar/categoria/intercambio_donacion_28.html";"COMPRAR/VENDER; INTERCAMBIO/DONACION"
"26";"http://www.mundoanuncio.com/publicar/categoria/otras_ventas_29.html";"COMPRAR/VENDER - OTRAS OFERTAS"
"27";"http://www.mundoanuncio.com/publicar/categoria/compras_en_general_30.html";"COMPRAR/VENDER - COMPRAS GENERALES"
"28";"http://www.mundoanuncio.com/publicar/categoria/compartir_aficion_amistad_32.html";"COMUNIDAD - COMPARTIR AFICION/AMISTAD"
"29";"http://www.mundoanuncio.com/publicar/categoria/artistas_musicos_33.html";"COMUNIDAD - ARTISTAS/MUSICOS"
"30";"http://www.mundoanuncio.com/publicar/categoria/intercambio_de_idiomas_34.html";"COMUNIDAD - INTERCAMBIO DE IDIOMAS"
"31";"http://www.mundoanuncio.com/publicar/categoria/mascotas_animales_35.html";"COMUNIDAD - MASCOTAS/ANIMALES"
"32";"http://www.mundoanuncio.com/publicar/categoria/compartir_coche_36.html";"COMUNIDAD - COMPARTIR COCHE"
"33";"http://www.mundoanuncio.com/publicar/categoria/voluntariado_37.html";"COMUNIDAD - VOLUNTARIADO"
"34";"http://www.mundoanuncio.com/publicar/categoria/comunidad_varios_38.html";"COMUNIDAD - VARIOS"
"35";"http://www.mundoanuncio.com/publicar/categoria/idiomas_40.html";"CLASES/TALLERES - IDIOMAS"
"36";"http://www.mundoanuncio.com/publicar/categoria/musica_teatro_danza_41.html";"CLASES/TALLERES - MUSICA/TEATRO/DANZA"
"37";"http://www.mundoanuncio.com/publicar/categoria/informatica_multimedia_42.html";"CLASES/TALLERES - INFORMATICA/MULTIMEDIA"
"38";"http://www.mundoanuncio.com/publicar/categoria/talleres_literarios_43.html";"CLASES/TALLERES - TALLERES LITERARIOS"
"39";"http://www.mundoanuncio.com/publicar/categoria/otras_clases_44.html";"CLASES/TALLERES - OTRAS CLASES"
"40";"http://www.mundoanuncio.com/publicar/categoria/internet_multimedia_46.html";"SERVICIOS - INTERNET/MULTIMEDIA"
"41";"http://www.mundoanuncio.com/publicar/categoria/editorial_traducciones_47.html";"SERVICIOS - EDITORIAL/TRADUCCIONES"
"42";"http://www.mundoanuncio.com/publicar/categoria/reformas_transporte_48.html";"SERVICIOS - REFORMAS/TRANSPORTE"
"43";"http://www.mundoanuncio.com/publicar/categoria/hogar_canguros_49.html";"SERVICIOS - HOGAR/CANGUROS"
"44";"http://www.mundoanuncio.com/publicar/categoria/terapias_yoga_50.html";"SERVICIOS - TERAPIAS/YOGA"
"45";"http://www.mundoanuncio.com/publicar/categoria/otros_servicios_51.html";"SERVICIOS - OTROS SERVICIOS"
"46";"http://www.mundoanuncio.com/publicar/categoria/libros_53.html";"GRATIS - LIBROS"
"47";"http://www.mundoanuncio.com/publicar/categoria/amistad_gratis_54.html";"GRATIS - AMISTAD GRATIS"
"48";"http://www.mundoanuncio.com/publicar/categoria/cursos_55.html";"GRATIS - CURSOS"
"49";"http://www.mundoanuncio.com/publicar/categoria/hosting_56.html";"GRATIS - HOSTING"
"50";"http://www.mundoanuncio.com/publicar/categoria/software_57.html";"GRATIS - SOFTWARE"
"51";"http://www.mundoanuncio.com/publicar/categoria/administracion_rrhh_59.html";"EMPLEO - ADMINISTRACION/RRHH"
"52";"http://www.mundoanuncio.com/publicar/categoria/arte_diseno_60.html";"EMPLEO - ARTE/DISENO"
"53";"http://www.mundoanuncio.com/publicar/categoria/atencion_al_cliente_61.html";"EMPLEO - ATENCION AL CLIENTE"
"54";"http://www.mundoanuncio.com/publicar/categoria/comercial_ventas_62.html";"EMPLEO - COMERCIAL/VENTAS"
"55";"http://www.mundoanuncio.com/publicar/categoria/construccion_mantenimiento_63.html";"EMPLEO - CONSTRUCCION/MANTENIMIENTO"
"56";"http://www.mundoanuncio.com/publicar/categoria/contabilidad_finanzas_64.html";"EMPLEO - CONTABILIDAD/FINANZAS"
"57";"http://www.mundoanuncio.com/publicar/categoria/direccion_de_empresas_65.html";"EMPLEO - DIRECCION DE EMPRESAS"
"58";"http://www.mundoanuncio.com/publicar/categoria/educacion_formacion_66.html";"EMPLEO - EDUCACION/FORMACION"
"59";"http://www.mundoanuncio.com/publicar/categoria/hosteleria_turismo_67.html";"EMPLEO - HOSTELERIA/TURISMO"
"60";"http://www.mundoanuncio.com/publicar/categoria/ingenieria_68.html";"EMPLEO - INGENIERIA"
"61";"http://www.mundoanuncio.com/publicar/categoria/informatica_multimedia_69.html";"EMPLEO - INFORMATICA/MULTIMEDIA"
"62";"http://www.mundoanuncio.com/publicar/categoria/imagen_sonido_70.html";"EMPLEO - IMAGEN/SONIDO"
"63";"http://www.mundoanuncio.com/publicar/categoria/recursos_humanos_71.html";"EMPLEO - RECURSOS HUMANOS"
"64";"http://www.mundoanuncio.com/publicar/categoria/marketing_publicidad_72.html";"EMPLEO - MARKETING/PUBLICIDAD"
"65";"http://www.mundoanuncio.com/publicar/categoria/medicina_servicios_sociales_73.html";"EMPLEO - MEDICINA/SERVICIOS SOCIALES"
"66";"http://www.mundoanuncio.com/publicar/categoria/otros_74.html";"EMPLEO - OTROS"
"67";"http://www.mundoanuncio.com/publicar/categoria/cv_75.html";"EMPLEO - CV"