{	
	totalCount: 10,
	items:[
		{
			anuncio: 'Anuncio 1',
			fecha: '10/02/2011 22:36',
			estado: true
		},
		{
			anuncio: 'Anuncio 1',
			fecha: '10/02/2011 22:46',
			estado: true
		},
		{
			anuncio: 'Anuncio 1',
			fecha: '10/02/2011 22:56',
			estado: false
		},
		{
			anuncio: 'Anuncio 1',
			fecha: '10/02/2011 23:06',
			estado: true
		},
		{
			anuncio: 'Anuncio 1',
			fecha: '10/02/2011 23:16'
			,estado: false
		},
		{
			anuncio: 'Anuncio 2',
			fecha: '02/25/2011 02:16',
			estado: true
		},
		{
			anuncio: 'Anuncio 2',
			fecha: '02/25/2011 02:26',
			estado: true
		},
		{
			anuncio: 'Anuncio 2',
			fecha: '02/25/2011 02:36',
			estado: false
		},
		{
			anuncio: 'Anuncio 2',
			fecha: '02/25/2011 02:46',
			estado: true
		},
		{
			anuncio: 'Anuncio 2',
			fecha: '02/25/2011 02:56',
			estado: true
		},
		{
			anuncio: 'Anuncio 3',
			fecha: '11/02/2011 00:06',
			estado: true
		},
		{
			anuncio: 'Anuncio 3',
			fecha: '11/02/2011 00:16',
			estado: false
		},
		{
			anuncio: 'Anuncio 3',
			fecha: '11/02/2011 00:26',
			estado: true
		},
		{
			anuncio: 'Anuncio 3',
			fecha: '11/02/2011 00:36',
			estado: true
		},
		{
			anuncio: 'Anuncio 3',
			fecha: '11/02/2011 00:46',
			estado: false
		},
		{
			anuncio: 'Anuncio 3',
			fecha: '11/02/2011 00:56',
			estado: true
		},
		{
			anuncio: 'Anuncio 4',
			fecha: '11/06/2011 06:36',
			estado: true
		},
		{
			anuncio: 'Anuncio 4',
			fecha: '11/06/2011 06:41',
			estado: true
		},
		{
			anuncio: 'Anuncio 4',
			fecha: '11/06/2011 06:46',
			estado: true
		},
		{
			anuncio: 'Anuncio 4',
			fecha: '11/06/2011 06:51',
			estado: true
		},
		{
			anuncio: 'Anuncio 5',
			fecha: '11/16/2011 36:36',
			estado: false
		},
		{
			anuncio: 'Anuncio 5',
			fecha: '11/16/2011 36:38',
			estado: false
		},
		{
			anuncio: 'Anuncio 5',
			fecha: '11/16/2011 36:40',
			estado: true
		},
		{
			anuncio: 'Anuncio 5',
			fecha: '11/16/2011 36:42',
			estado: true
		},
		{
			anuncio: 'Anuncio 5',
			fecha: '11/16/2011 36:44',
			estado: true
		},
		{
			anuncio: 'Anuncio 6',
			fecha: '10/20/2011 03:57',
			estado: true
		},
		{
			anuncio: 'Anuncio 6',
			fecha: '10/20/2011 03:58',
			estado: true
		},
		{
			anuncio: 'Anuncio 6',
			fecha: '10/20/2011 03:59',
			estado: true
		},
		{
			anuncio: 'Anuncio 7',
			fecha: '09/10/2011 23:24',
			estado: false
		},
		{
			anuncio: 'Anuncio 7',
			fecha: '09/10/2011 23:44',
			estado: true
		},
		{
			anuncio: 'Anuncio 7',
			fecha: '09/10/2011 00:04',
			estado: true
		},
		{
			anuncio: 'Anuncio 7',
			fecha: '09/10/2011 00:24',
			estado: true
		},
		{
			anuncio: 'Anuncio 8',
			fecha: '08/19/2011 01:21',
			estado: true
		},
		{
			anuncio: 'Anuncio 8',
			fecha: '08/19/2011 01:28',
			estado: true
		},
		{
			anuncio: 'Anuncio 9',
			fecha: '12/04/2011 02:10',
			estado: false
		},
		{
			anuncio: 'Anuncio 9',
			fecha: '12/04/2011 02:15',
			estado: false
		},
		{
			anuncio: 'Anuncio 9',
			fecha: '12/04/2011 02:20',
			estado: true
		},
		{
			anuncio: 'Anuncio 10',
			fecha: '10/02/2011 22:36',
			estado: true
		}
	]
}