{"text":".","children":
	[
		{
			title: '<b>Raiz</b>',
			expanded: true,
			leaf: false,
			//iconCls: 'world',
			children: [
				{
					title: '<b>Madrid</b>',
					expanded: false,
					leaf: false,
					//iconCls: 'world',
					children: [
						{
							title: 'Anuncio 1',
							fechaPublicacion: '08/06/2011 12:12:23',
							intervalo: '5',
							iconCls: 'file',
							leaf: true,checked:true
						},
						{
							title: 'Anuncio 2',
							fechaPublicacion: '09/06/2011 12:32:01',
							iconCls: 'file',
							intervalo: '5',
							leaf: true,checked:true						
						},
						{
							title: 'Anuncio 3',
							fechaPublicacion: '09/06/2011 13:32:01',
							intervalo: '5',
							iconCls: 'file',
							leaf: true,checked:true							
						}
					]
				},
				{
					title: '<b>&Aacute;lcazar</b>',
					expanded: false,
					//iconCls: 'world',
					leaf: false,
					children: [
						{
							title: 'Anuncio 4',
							fechaPublicacion: '09/06/2011 21:32:01',
							intervalo: '5',
							iconCls: 'file',
							leaf: true,checked:true							
						},
						{
							title: 'Anuncio 5',
							fechaPublicacion: '09/06/2011 21:40:01',
							intervalo: '5',
							iconCls: 'file',
							leaf: true,checked:true							
						},
						{
							title: 'Anuncio 6',
							fechaPublicacion: '09/06/2011 21:55:01',
							intervalo: '5',
							iconCls: 'file',
							leaf: true,checked:true							
						},
						{
							title: 'Anuncio 7',
							fechaPublicacion: '09/06/2011 22:32:01',
							intervalo: '5',
							iconCls: 'file',
							leaf: true,checked:true							
						},
						{
							title: 'Anuncio 8',
							fechaPublicacion: '09/06/2011 22:40:01',
							intervalo: '5',
							iconCls: 'file',
							leaf: true,checked:true							
						},
						{
							title: 'Anuncio 9',
							fechaPublicacion: '09/06/2011 22:55:01',
							intervalo: '5',
							iconCls: 'file',
							leaf: true,checked:true							
						}				
					]
				},
				{
					title: '<b>Aranjuez</b>',
					expanded: false,
					leaf: false,
					//iconCls: 'world',
					children: [
						{
							title: 'Anuncio 4',
							fechaPublicacion: '09/06/2011 21:32:01',
							intervalo: '5',
							iconCls: 'file',
							leaf: true,checked:true							
						},
						{
							title: 'Anuncio 5',
							fechaPublicacion: '09/06/2011 21:40:01',
							intervalo: '5',
							iconCls: 'file',
							leaf: true,checked:true							
						},
						{
							title: 'Anuncio 6',
							fechaPublicacion: '09/06/2011 21:55:01',
							intervalo: '5',
							iconCls: 'file',
							leaf: true,checked:true							
						},
						{
							title: 'Anuncio 7',
							fechaPublicacion: '09/06/2011 22:32:01',
							intervalo: '5',
							iconCls: 'file',
							leaf: true,checked:true							
						},
						{
							title: 'Anuncio 8',
							fechaPublicacion: '09/06/2011 22:40:01',
							intervalo: '5',
							iconCls: 'file',
							leaf: true,checked:true							
						},
						{
							title: 'Anuncio 9',
							fechaPublicacion: '09/06/2011 22:55:01',
							intervalo: '5',
							iconCls: 'file',
							leaf: true,checked:true							
						},
						{
							title: 'Anuncio 10',
							fechaPublicacion: '09/06/2011 23:32:01',
							intervalo: '5',
							iconCls: 'file',
							leaf: true,checked:true							
						},
						{
							title: 'Anuncio 11',
							fechaPublicacion: '09/06/2011 23:40:01',
							intervalo: '5',
							iconCls: 'file',
							leaf: true,checked:true							
						},
						{
							title: 'Anuncio 12',
							fechaPublicacion: '09/06/2011 23:55:01',
							intervalo: '5',
							iconCls: 'file',
							leaf: true,checked:true							
						}						
					]
				},
				{
					title: '<b>Badajoz</b>',
					expanded: false,
					leaf: false,
					//iconCls: 'world',
					children: [
						{
							title: 'Anuncio 4',
							fechaPublicacion: '09/06/2011 21:32:01',
							intervalo: '5',
							iconCls: 'file',
							leaf: true,checked:true							
						},
						{
							title: 'Anuncio 5',
							fechaPublicacion: '09/06/2011 21:40:01',
							intervalo: '5',
							iconCls: 'file',
							leaf: true,checked:true							
						},
						{
							title: 'Anuncio 6',
							fechaPublicacion: '09/06/2011 21:55:01',
							intervalo: '5',
							iconCls: 'file',
							leaf: true,checked:true							
						},
						{
							title: 'Anuncio 7',
							fechaPublicacion: '09/06/2011 22:32:01',
							intervalo: '5',
							iconCls: 'file',
							leaf: true,checked:true							
						},
						{
							title: 'Anuncio 8',
							fechaPublicacion: '09/06/2011 22:40:01',
							intervalo: '5',
							iconCls: 'file',
							leaf: true,checked:true							
						},
						{
							title: 'Anuncio 9',
							fechaPublicacion: '09/06/2011 22:55:01',
							intervalo: '5',
							iconCls: 'file',
							leaf: true,checked:true							
						},
						{
							title: 'Anuncio 10',
							fechaPublicacion: '09/06/2011 23:32:01',
							intervalo: '5',
							iconCls: 'file',
							leaf: true,checked:true							
						},
						{
							title: 'Anuncio 11',
							fechaPublicacion: '09/06/2011 23:40:01',
							intervalo: '5',
							iconCls: 'file',
							leaf: true,checked:true							
						},
						{
							title: 'Anuncio 12',
							fechaPublicacion: '09/06/2011 23:55:01',
							intervalo: '5',
							iconCls: 'file',
							leaf: true,checked:true							
						}						
					]
				},
				{
					title: '<b>Albacete</b>',
					expanded: false,
					leaf: false,
					//iconCls: 'world',
					children: [
						{
							title: 'Anuncio 4',
							fechaPublicacion: '09/06/2011 21:32:01',
							intervalo: '5',
							iconCls: 'file',
							leaf: true,checked:true							
						},
						{
							title: 'Anuncio 5',
							fechaPublicacion: '09/06/2011 21:40:01',
							intervalo: '5',
							iconCls: 'file',
							leaf: true,checked:true							
						},
						{
							title: 'Anuncio 6',
							fechaPublicacion: '09/06/2011 21:55:01',
							intervalo: '5',
							iconCls: 'file',
							leaf: true,checked:true							
						},
						{
							title: 'Anuncio 7',
							fechaPublicacion: '09/06/2011 22:32:01',
							intervalo: '5',
							iconCls: 'file',
							leaf: true,checked:true							
						},
						{
							title: 'Anuncio 8',
							fechaPublicacion: '09/06/2011 22:40:01',
							intervalo: '5',
							iconCls: 'file',
							leaf: true,checked:true							
						},
						{
							title: 'Anuncio 9',
							fechaPublicacion: '09/06/2011 22:55:01',
							intervalo: '5',
							iconCls: 'file',
							leaf: true,checked:true							
						},
						{
							title: 'Anuncio 10',
							fechaPublicacion: '09/06/2011 23:32:01',
							intervalo: '5',
							iconCls: 'file',
							leaf: true,checked:true							
						},
						{
							title: 'Anuncio 11',
							fechaPublicacion: '09/06/2011 23:40:01',
							intervalo: '5',
							iconCls: 'file',
							leaf: true,checked:true							
						},
						{
							title: 'Anuncio 12',
							fechaPublicacion: '09/06/2011 23:55:01',
							intervalo: '5',
							iconCls: 'file',
							leaf: true,checked:true							
						}						
					]		
				},
				{
					title: '<b>Ciudad Real</b>',
					expanded: false,
					leaf: false,
					//iconCls: 'world',
					children: [
						{
							title: 'Anuncio 4',
							fechaPublicacion: '09/06/2011 21:32:01',
							intervalo: '5',
							iconCls: 'file',
							leaf: true,checked:true							
						},
						{
							title: 'Anuncio 5',
							fechaPublicacion: '09/06/2011 21:40:01',
							intervalo: '5',
							iconCls: 'file',
							leaf: true,checked:true							
						},
						{
							title: 'Anuncio 6',
							fechaPublicacion: '09/06/2011 21:55:01',
							intervalo: '5',
							iconCls: 'file',
							leaf: true,checked:true							
						},
						{
							title: 'Anuncio 7',
							fechaPublicacion: '09/06/2011 22:32:01',
							intervalo: '5',
							iconCls: 'file',
							leaf: true,checked:true							
						},
						{
							title: 'Anuncio 8',
							fechaPublicacion: '09/06/2011 22:40:01',
							intervalo: '5',
							iconCls: 'file',
							leaf: true,checked:true							
						},
						{
							title: 'Anuncio 9',
							fechaPublicacion: '09/06/2011 22:55:01',
							intervalo: '5',
							iconCls: 'file',
							leaf: true,checked:true							
						},
						{
							title: 'Anuncio 10',
							fechaPublicacion: '09/06/2011 23:32:01',
							intervalo: '5',
							iconCls: 'file',
							leaf: true,checked:true							
						},
						{
							title: 'Anuncio 11',
							fechaPublicacion: '09/06/2011 23:40:01',
							intervalo: '5',
							iconCls: 'file',
							leaf: true,checked:true							
						},
						{
							title: 'Anuncio 12',
							fechaPublicacion: '09/06/2011 23:55:01',
							intervalo: '5',
							iconCls: 'file',
							leaf: true,checked:true							
						}						
					]		
				},
				{
					title: '<b>Fuenlabrada</b>',
					expanded: false,
					leaf: false,
					//iconCls: 'world',
					children: [
						{
							title: 'Anuncio 4',
							fechaPublicacion: '09/06/2011 21:32:01',
							intervalo: '5',
							iconCls: 'file',
							leaf: true,checked:true
						},
						{
							title: 'Anuncio 5',
							fechaPublicacion: '09/06/2011 21:40:01',
							intervalo: '5',
							iconCls: 'file',
							leaf: true,checked:true					
						},
						{
							title: 'Anuncio 6',
							fechaPublicacion: '09/06/2011 21:55:01',
							intervalo: '5',
							iconCls: 'file',
							leaf: true,checked:true						
						},
						{
							title: 'Anuncio 7',
							fechaPublicacion: '09/06/2011 22:32:01',
							intervalo: '5',
							iconCls: 'file',
							leaf: true,checked:true							
						},
						{
							title: 'Anuncio 8',
							fechaPublicacion: '09/06/2011 22:40:01',
							intervalo: '5',
							iconCls: 'file',
							leaf: true,checked:true							
						},
						{
							title: 'Anuncio 9',
							fechaPublicacion: '09/06/2011 22:55:01',
							intervalo: '5',
							iconCls: 'file',
							leaf: true,checked:true							
						},
						{
							title: 'Anuncio 10',
							fechaPublicacion: '09/06/2011 23:32:01',
							intervalo: '5',
							iconCls: 'file',
							leaf: true,checked:true							
						},
						{
							title: 'Anuncio 11',
							fechaPublicacion: '09/06/2011 23:40:01',
							intervalo: '5',
							iconCls: 'file',
							leaf: true,checked:true							
						},
						{
							title: 'Anuncio 12',
							fechaPublicacion: '09/06/2011 23:55:01',
							intervalo: '5',
							iconCls: 'file',
							leaf: true,checked:true							
						}						
					]
				}
			]
		}
	]
}